YUL;Montreal;45.4697842;-73.7554174
YYZ;Toronto;43.6777215;-79.6270084
JFK;New York JFK;40.6413151;-73.7803278,17
HOG;Holguin;20.790680;-76.304185
ICN;Incheon;37.460195;126.438507
BCN;Barcelona;41.297449;2.0811054
PVG;Shanghai;31.183622;121.617073
